{
  "armours": [
    {
      "name": "Padded",
      "rarity": "Common",
      "category": "Light",
      "ac": 11,
      "cost": 500,
      "weight": 8,
      "stealth_disadvantage": true,
      "description": "Padded armour consists of quilted layers of cloth and batting."
    },
    {
      "name": "Leather",
      "rarity": "Common",
      "category": "Light",
      "ac": 11,
      "cost": 1000,
      "weight": 10,
      "stealth_disadvantage": false,
      "description": "The breastplate and shoulder protectors of this armour are made of leather that has been stiffened by being boiled in oil. The rest of the armour is made of softer and more flexible materials."
    },
    {
      "name": "Studded Leather",
      "rarity": "Common",
      "category": "Light",
      "ac": 12,
      "cost": 4500,
      "weight": 13,
      "stealth_disadvantage": false,
      "description": "Made from tough but flexible leather, studded leather is reinforced with close-set rivets or spikes."
    },
    {
      "name": "Hide",
      "rarity": "Common",
      "category": "Medium",
      "ac": 12,
      "cost": 1000,
      "weight": 12,
      "stealth_disadvantage": false,
      "description": "This crude armour consists of thick furs and pelts. It is commonly worn by barbarian tribes, evil humanoids, and other folk who lack access to the tools and materials needed to create better armour."
    },
    {
      "name": "Chain Shirt",
      "rarity": "Common",
      "category": "Medium",
      "ac": 13,
      "cost": 5000,
      "weight": 20,
      "stealth_disadvantage": false,
      "description": "Made of interlocking metal rings, a chain shirt is worn between layers of clothing or leather. This armour offers modest protection to the wearer’s upper body and allows the sound of the rings rubbing against one another to be muffled by outer layers."
    },
    {
      "name": "Scale Mail",
      "rarity": "Common",
      "category": "Medium",
      "ac": 14,
      "cost": 5000,
      "weight": 45,
      "stealth_disadvantage": true,
      "description": "This armour consists of a coat and leggings (and perhaps a separate skirt) of leather covered with overlapping pieces of metal, much like the scales of a fish. The suit includes gauntlets."
    },
    {
      "name": "Breastplate",
      "rarity": "Common",
      "category": "Medium",
      "ac": 14,
      "cost": 40000,
      "weight": 20,
      "stealth_disadvantage": false,
      "description": "This armour consists of a fitted metal chest piece worn with supple leather. Although it leaves the legs and arms relatively unprotected, this armour provides good protection for the wearer’s vital organs while leaving the wearer relatively unencumbered."
    },
    {
      "name": "Half Plate",
      "rarity": "Common",
      "category": "Medium",
      "ac": 15,
      "cost": 75000,
      "weight": 40,
      "stealth_disadvantage": true,
      "description": "Half plate consists of shaped metal plates that cover most of the wearer’s body. It does not include leg protection beyond simple greaves that are attached with leather straps."
    },
    {
      "name": "Ring Mail",
      "rarity": "Common",
      "category": "Heavy",
      "ac": 14,
      "cost": 30,
      "weight": 40,
      "stealth_disadvantage": true,
      "description": "This armour is leather armour with heavy rings sewn into it. The rings help reinforce the armour against blows from swords and axes. Ring mail is inferior to chain mail, and it’s usually worn only by those who can’t afford better armour. "
    },
    {
      "name": "Chain Mail",
      "rarity": "Common",
      "category": "Heavy",
      "ac": 16,
      "cost": 7500,
      "weight": 55,
      "stealth_disadvantage": true,
      "description": "Made of interlocking metal rings, chain mail includes a layer of quilted fabric worn underneath the mail to prevent chafing and to cushion the impact of blows. The suit includes gauntlets."
    },
    {
      "name": "Splint",
      "rarity": "Common",
      "category": "Heavy",
      "ac": 17,
      "cost": 20000,
      "weight": 60,
      "stealth_disadvantage": true,
      "description": "This armour is made of narrow vertical strips of metal riveted to a backing of leather that is worn over cloth padding. Flexible chain mail protects the joints."
    },
    {
      "name": "Plate",
      "rarity": "Common",
      "category": "Heavy",
      "ac": 18,
      "cost": 150000,
      "weight": 65,
      "stealth_disadvantage": true,
      "description": "Plate consists of shaped, interlocking metal plates to cover the entire body. A suit of plate includes gauntlets, heavy leather boots, a visored helmet, and thick layers of padding underneath the armour. Buckles and straps distribute the weight over the body."
    }
  ],
  "categories": [
    {
      "name": "Light",
      "degree": 1,
      "description": "Made from supple and thin materials, light armour favors agile adventurers since it offers some protection without sacrificing mobility. If you wear light armour, you add your Dexterity modifier to the base number from your armour type to determine your Armour Class."
    },
    {
      "name": "Medium",
      "degree": 2,
      "description": "Medium armour offers more protection than light armour, but it also impairs movement more. If you wear medium armour, you add your Dexterity modifier, to a maximum of +2, to the base number from your armour type to determine your Armour Class."
    },
    {
      "name": "Heavy",
      "degree": 3,
      "description": "<p>Of all the armour categories, heavy armour offers the best protection. These suits of armour cover the entire body and are designed to stop a wide range of attacks. Only proficient warriors can manage their weight and bulk.</p><p>Heavy armour doesn’t let you add your Dexterity modifier to your Armour Class, but it also doesn’t penalize you if your Dexterity modifier is negative.</p>"
    }
  ]
}
